%YAML 1.1
%TAG !u! tag:unity3d.com,2011:
--- !u!114 &11400000
MonoBehaviour:
  m_ObjectHideFlags: 0
  m_CorrespondingSourceObject: {fileID: 0}
  m_PrefabInstance: {fileID: 0}
  m_PrefabAsset: {fileID: 0}
  m_GameObject: {fileID: 0}
  m_Enabled: 1
  m_EditorHideFlags: 0
  m_Script: {fileID: 11500000, guid: 8391c46211dae144cb3e1dc641fdc698, type: 3}
  m_Name: SoundSourceBGM
  m_EditorClassIdentifier: 
  audioClips:
  - {fileID: 8300000, guid: dd45cab59f25aa34cbd918f17ea5e373, type: 3}
